{"page":"1","per_page":12,"pages":5,"total":52,"shots":[{"id":1250734,"title":"Second pricing iteration","height":300,"width":400,"likes_count":1,"comments_count":1,"rebounds_count":0,"url":"http:\/\/dribbble.com\/shots\/1250734-Second-pricing-iteration","short_url":"http:\/\/drbl.in\/iUCE","views_count":85,"rebound_source_id":null,"image_url":"http:\/\/dribbble.s3.amazonaws.com\/users\/44352\/screenshots\/1250734\/pricing.png","image_teaser_url":"http:\/\/dribbble.s3.amazonaws.com\/users\/44352\/screenshots\/1250734\/pricing_teaser.png","player":{"id":44352,"name":"Jim Nielsen","location":"NYC","followers_count":175,"draftees_count":0,"likes_count":154,"likes_received_count":324,"comments_count":125,"comments_received_count":59,"rebounds_count":3,"rebounds_received_count":0,"url":"http:\/\/dribbble.com\/jimniels","avatar_url":"http:\/\/dribbble.s3.amazonaws.com\/users\/44352\/avatars\/original\/me_normal.png?1310057705","username":"jimniels","twitter_screen_name":"jimniels","website_url":"http:\/\/jim-nielsen.com","drafted_by_player_id":4737,"shots_count":52,"following_count":94,"created_at":"2011\/07\/07 12:55:04 -0400"},"created_at":"2013\/09\/26 14:15:06 -0400"},{"id":1250731,"title":"First iteration on pricing","height":300,"width":400,"likes_count":0,"comments_count":0,"rebounds_count":0,"url":"http:\/\/dribbble.com\/shots\/1250731-First-iteration-on-pricing","short_url":"http:\/\/drbl.in\/iUCB","views_count":44,"rebound_source_id":null,"image_url":"http:\/\/dribbble.s3.amazonaws.com\/users\/44352\/screenshots\/1250731\/pricing-1.png","image_teaser_url":"http:\/\/dribbble.s3.amazonaws.com\/users\/44352\/screenshots\/1250731\/pricing-1_teaser.png","player":{"id":44352,"name":"Jim Nielsen","location":"NYC","followers_count":175,"draftees_count":0,"likes_count":154,"likes_received_count":324,"comments_count":125,"comments_received_count":59,"rebounds_count":3,"rebounds_received_count":0,"url":"http:\/\/dribbble.com\/jimniels","avatar_url":"http:\/\/dribbble.s3.amazonaws.com\/users\/44352\/avatars\/original\/me_normal.png?1310057705","username":"jimniels","twitter_screen_name":"jimniels","website_url":"http:\/\/jim-nielsen.com","drafted_by_player_id":4737,"shots_count":52,"following_count":94,"created_at":"2011\/07\/07 12:55:04 -0400"},"created_at":"2013\/09\/26 14:14:24 -0400"},{"id":1250719,"title":"Identity","height":300,"width":400,"likes_count":1,"comments_count":1,"rebounds_count":0,"url":"http:\/\/dribbble.com\/shots\/1250719-Identity","short_url":"http:\/\/drbl.in\/iUCp","views_count":25,"rebound_source_id":null,"image_url":"http:\/\/dribbble.s3.amazonaws.com\/users\/44352\/screenshots\/1250719\/brigham.jpg","image_teaser_url":"http:\/\/dribbble.s3.amazonaws.com\/users\/44352\/screenshots\/1250719\/brigham_teaser.jpg","player":{"id":44352,"name":"Jim Nielsen","location":"NYC","followers_count":175,"draftees_count":0,"likes_count":154,"likes_received_count":324,"comments_count":125,"comments_received_count":59,"rebounds_count":3,"rebounds_received_count":0,"url":"http:\/\/dribbble.com\/jimniels","avatar_url":"http:\/\/dribbble.s3.amazonaws.com\/users\/44352\/avatars\/original\/me_normal.png?1310057705","username":"jimniels","twitter_screen_name":"jimniels","website_url":"http:\/\/jim-nielsen.com","drafted_by_player_id":4737,"shots_count":52,"following_count":94,"created_at":"2011\/07\/07 12:55:04 -0400"},"created_at":"2013\/09\/26 14:10:55 -0400"},{"id":1248975,"title":"Kindling Loves Startups Landing Page","height":300,"width":400,"likes_count":2,"comments_count":1,"rebounds_count":0,"url":"http:\/\/dribbble.com\/shots\/1248975-Kindling-Loves-Startups-Landing-Page","short_url":"http:\/\/drbl.in\/iTUN","views_count":38,"rebound_source_id":null,"image_url":"http:\/\/dribbble.s3.amazonaws.com\/users\/44352\/screenshots\/1248975\/startups.png","image_teaser_url":"http:\/\/dribbble.s3.amazonaws.com\/users\/44352\/screenshots\/1248975\/startups_teaser.png","player":{"id":44352,"name":"Jim Nielsen","location":"NYC","followers_count":175,"draftees_count":0,"likes_count":154,"likes_received_count":324,"comments_count":125,"comments_received_count":59,"rebounds_count":3,"rebounds_received_count":0,"url":"http:\/\/dribbble.com\/jimniels","avatar_url":"http:\/\/dribbble.s3.amazonaws.com\/users\/44352\/avatars\/original\/me_normal.png?1310057705","username":"jimniels","twitter_screen_name":"jimniels","website_url":"http:\/\/jim-nielsen.com","drafted_by_player_id":4737,"shots_count":52,"following_count":94,"created_at":"2011\/07\/07 12:55:04 -0400"},"created_at":"2013\/09\/25 11:31:41 -0400"},{"id":1242191,"title":"Testing responsively now...","height":300,"width":400,"likes_count":3,"comments_count":0,"rebounds_count":0,"url":"http:\/\/dribbble.com\/shots\/1242191-Testing-responsively-now","short_url":"http:\/\/drbl.in\/iRup","views_count":86,"rebound_source_id":null,"image_url":"http:\/\/dribbble.s3.amazonaws.com\/users\/44352\/screenshots\/1242191\/drib.jpg","image_teaser_url":"http:\/\/dribbble.s3.amazonaws.com\/users\/44352\/screenshots\/1242191\/drib_teaser.jpg","player":{"id":44352,"name":"Jim Nielsen","location":"NYC","followers_count":175,"draftees_count":0,"likes_count":154,"likes_received_count":324,"comments_count":125,"comments_received_count":59,"rebounds_count":3,"rebounds_received_count":0,"url":"http:\/\/dribbble.com\/jimniels","avatar_url":"http:\/\/dribbble.s3.amazonaws.com\/users\/44352\/avatars\/original\/me_normal.png?1310057705","username":"jimniels","twitter_screen_name":"jimniels","website_url":"http:\/\/jim-nielsen.com","drafted_by_player_id":4737,"shots_count":52,"following_count":94,"created_at":"2011\/07\/07 12:55:04 -0400"},"created_at":"2013\/09\/19 14:26:58 -0400"},{"id":1237949,"title":"People graphic","height":300,"width":400,"likes_count":2,"comments_count":3,"rebounds_count":0,"url":"http:\/\/dribbble.com\/shots\/1237949-People-graphic","short_url":"http:\/\/drbl.in\/iPQL","views_count":91,"rebound_source_id":null,"image_url":"http:\/\/dribbble.s3.amazonaws.com\/users\/44352\/screenshots\/1237949\/people.png","image_teaser_url":"http:\/\/dribbble.s3.amazonaws.com\/users\/44352\/screenshots\/1237949\/people_teaser.png","player":{"id":44352,"name":"Jim Nielsen","location":"NYC","followers_count":175,"draftees_count":0,"likes_count":154,"likes_received_count":324,"comments_count":125,"comments_received_count":59,"rebounds_count":3,"rebounds_received_count":0,"url":"http:\/\/dribbble.com\/jimniels","avatar_url":"http:\/\/dribbble.s3.amazonaws.com\/users\/44352\/avatars\/original\/me_normal.png?1310057705","username":"jimniels","twitter_screen_name":"jimniels","website_url":"http:\/\/jim-nielsen.com","drafted_by_player_id":4737,"shots_count":52,"following_count":94,"created_at":"2011\/07\/07 12:55:04 -0400"},"created_at":"2013\/09\/16 18:19:26 -0400"},{"id":1233555,"title":"Narrative and artwork concepts","height":300,"width":400,"likes_count":1,"comments_count":0,"rebounds_count":0,"url":"http:\/\/dribbble.com\/shots\/1233555-Narrative-and-artwork-concepts","short_url":"http:\/\/drbl.in\/iOkl","views_count":81,"rebound_source_id":null,"image_url":"http:\/\/dribbble.s3.amazonaws.com\/users\/44352\/screenshots\/1233555\/home-artwork.png","image_teaser_url":"http:\/\/dribbble.s3.amazonaws.com\/users\/44352\/screenshots\/1233555\/home-artwork_teaser.png","player":{"id":44352,"name":"Jim Nielsen","location":"NYC","followers_count":175,"draftees_count":0,"likes_count":154,"likes_received_count":324,"comments_count":125,"comments_received_count":59,"rebounds_count":3,"rebounds_received_count":0,"url":"http:\/\/dribbble.com\/jimniels","avatar_url":"http:\/\/dribbble.s3.amazonaws.com\/users\/44352\/avatars\/original\/me_normal.png?1310057705","username":"jimniels","twitter_screen_name":"jimniels","website_url":"http:\/\/jim-nielsen.com","drafted_by_player_id":4737,"shots_count":52,"following_count":94,"created_at":"2011\/07\/07 12:55:04 -0400"},"created_at":"2013\/09\/12 18:37:47 -0400"},{"id":1203237,"title":"Icon Gallery Theme","height":600,"width":800,"likes_count":15,"comments_count":2,"rebounds_count":0,"url":"http:\/\/dribbble.com\/shots\/1203237-Icon-Gallery-Theme","short_url":"http:\/\/drbl.in\/iCZj","views_count":448,"rebound_source_id":null,"image_url":"http:\/\/dribbble.s3.amazonaws.com\/users\/44352\/screenshots\/1203237\/mac-icon-gallery.jpg","image_teaser_url":"http:\/\/dribbble.s3.amazonaws.com\/users\/44352\/screenshots\/1203237\/mac-icon-gallery_teaser.jpg","image_400_url":"http:\/\/dribbble.s3.amazonaws.com\/users\/44352\/screenshots\/1203237\/mac-icon-gallery_1x.jpg","player":{"id":44352,"name":"Jim Nielsen","location":"NYC","followers_count":175,"draftees_count":0,"likes_count":154,"likes_received_count":324,"comments_count":125,"comments_received_count":59,"rebounds_count":3,"rebounds_received_count":0,"url":"http:\/\/dribbble.com\/jimniels","avatar_url":"http:\/\/dribbble.s3.amazonaws.com\/users\/44352\/avatars\/original\/me_normal.png?1310057705","username":"jimniels","twitter_screen_name":"jimniels","website_url":"http:\/\/jim-nielsen.com","drafted_by_player_id":4737,"shots_count":52,"following_count":94,"created_at":"2011\/07\/07 12:55:04 -0400"},"created_at":"2013\/08\/20 09:52:55 -0400"},{"id":1199207,"title":"Responsive SVG icon","height":600,"width":800,"likes_count":0,"comments_count":1,"rebounds_count":0,"url":"http:\/\/dribbble.com\/shots\/1199207-Responsive-SVG-icon","short_url":"http:\/\/drbl.in\/iBzJ","views_count":241,"rebound_source_id":null,"image_url":"http:\/\/dribbble.s3.amazonaws.com\/users\/44352\/screenshots\/1199207\/responsive-svg.png","image_teaser_url":"http:\/\/dribbble.s3.amazonaws.com\/users\/44352\/screenshots\/1199207\/responsive-svg_teaser.png","image_400_url":"http:\/\/dribbble.s3.amazonaws.com\/users\/44352\/screenshots\/1199207\/responsive-svg_1x.png","player":{"id":44352,"name":"Jim Nielsen","location":"NYC","followers_count":175,"draftees_count":0,"likes_count":154,"likes_received_count":324,"comments_count":125,"comments_received_count":59,"rebounds_count":3,"rebounds_received_count":0,"url":"http:\/\/dribbble.com\/jimniels","avatar_url":"http:\/\/dribbble.s3.amazonaws.com\/users\/44352\/avatars\/original\/me_normal.png?1310057705","username":"jimniels","twitter_screen_name":"jimniels","website_url":"http:\/\/jim-nielsen.com","drafted_by_player_id":4737,"shots_count":52,"following_count":94,"created_at":"2011\/07\/07 12:55:04 -0400"},"created_at":"2013\/08\/16 13:01:08 -0400"},{"id":1197744,"title":"Working on some 26px icons","height":300,"width":400,"likes_count":2,"comments_count":0,"rebounds_count":0,"url":"http:\/\/dribbble.com\/shots\/1197744-Working-on-some-26px-icons","short_url":"http:\/\/drbl.in\/iAXC","views_count":135,"rebound_source_id":null,"image_url":"http:\/\/dribbble.s3.amazonaws.com\/users\/44352\/screenshots\/1197744\/icon.png","image_teaser_url":"http:\/\/dribbble.s3.amazonaws.com\/users\/44352\/screenshots\/1197744\/icon_teaser.png","player":{"id":44352,"name":"Jim Nielsen","location":"NYC","followers_count":175,"draftees_count":0,"likes_count":154,"likes_received_count":324,"comments_count":125,"comments_received_count":59,"rebounds_count":3,"rebounds_received_count":0,"url":"http:\/\/dribbble.com\/jimniels","avatar_url":"http:\/\/dribbble.s3.amazonaws.com\/users\/44352\/avatars\/original\/me_normal.png?1310057705","username":"jimniels","twitter_screen_name":"jimniels","website_url":"http:\/\/jim-nielsen.com","drafted_by_player_id":4737,"shots_count":52,"following_count":94,"created_at":"2011\/07\/07 12:55:04 -0400"},"created_at":"2013\/08\/15 13:10:26 -0400"},{"id":1194998,"title":"Tennis symbol","height":600,"width":800,"likes_count":1,"comments_count":0,"rebounds_count":0,"url":"http:\/\/dribbble.com\/shots\/1194998-Tennis-symbol","short_url":"http:\/\/drbl.in\/izWM","views_count":154,"rebound_source_id":null,"image_url":"http:\/\/dribbble.s3.amazonaws.com\/users\/44352\/screenshots\/1194998\/tennis.png","image_teaser_url":"http:\/\/dribbble.s3.amazonaws.com\/users\/44352\/screenshots\/1194998\/tennis_teaser.png","image_400_url":"http:\/\/dribbble.s3.amazonaws.com\/users\/44352\/screenshots\/1194998\/tennis_1x.png","player":{"id":44352,"name":"Jim Nielsen","location":"NYC","followers_count":175,"draftees_count":0,"likes_count":154,"likes_received_count":324,"comments_count":125,"comments_received_count":59,"rebounds_count":3,"rebounds_received_count":0,"url":"http:\/\/dribbble.com\/jimniels","avatar_url":"http:\/\/dribbble.s3.amazonaws.com\/users\/44352\/avatars\/original\/me_normal.png?1310057705","username":"jimniels","twitter_screen_name":"jimniels","website_url":"http:\/\/jim-nielsen.com","drafted_by_player_id":4737,"shots_count":52,"following_count":94,"created_at":"2011\/07\/07 12:55:04 -0400"},"created_at":"2013\/08\/13 15:57:10 -0400"},{"id":1171658,"title":"Delete Tag Interaction","height":300,"width":400,"likes_count":5,"comments_count":1,"rebounds_count":0,"url":"http:\/\/dribbble.com\/shots\/1171658-Delete-Tag-Interaction","short_url":"http:\/\/drbl.in\/irpU","views_count":219,"rebound_source_id":null,"image_url":"http:\/\/dribbble.s3.amazonaws.com\/users\/44352\/screenshots\/1171658\/untitled-3.gif","image_teaser_url":"http:\/\/dribbble.s3.amazonaws.com\/users\/44352\/screenshots\/1171658\/untitled-3_teaser.gif","player":{"id":44352,"name":"Jim Nielsen","location":"NYC","followers_count":175,"draftees_count":0,"likes_count":154,"likes_received_count":324,"comments_count":125,"comments_received_count":59,"rebounds_count":3,"rebounds_received_count":0,"url":"http:\/\/dribbble.com\/jimniels","avatar_url":"http:\/\/dribbble.s3.amazonaws.com\/users\/44352\/avatars\/original\/me_normal.png?1310057705","username":"jimniels","twitter_screen_name":"jimniels","website_url":"http:\/\/jim-nielsen.com","drafted_by_player_id":4737,"shots_count":52,"following_count":94,"created_at":"2011\/07\/07 12:55:04 -0400"},"created_at":"2013\/07\/26 12:27:45 -0400"}]}